{
    "m_SGVersion": 3,
    "m_Type": "UnityEditor.ShaderGraph.GraphData",
    "m_ObjectId": "2253cf162b774f13a5bdcfc2d59d8f15",
    "m_Properties": [
        {
            "m_Id": "af7a0a7b174144be890124e12b2decfd"
        },
        {
            "m_Id": "226dd7d867334f80afd83b49c979a441"
        },
        {
            "m_Id": "e6c24d81be174932bc18bc09bc83941a"
        },
        {
            "m_Id": "f7b429cd7b204ad693343b4dc1d1f09c"
        }
    ],
    "m_Keywords": [],
    "m_Dropdowns": [],
    "m_CategoryData": [
        {
            "m_Id": "043ffd1e4975440590c0a49a0b632529"
        }
    ],
    "m_Nodes": [
        {
            "m_Id": "85b757b396f04b87af7e64764807c5a2"
        },
        {
            "m_Id": "257661ba6f80498daceb0d475841d197"
        },
        {
            "m_Id": "a50bd42dd31b414698225e8d8bfab5dd"
        },
        {
            "m_Id": "08421265332e477db9a0753cba8d4fc7"
        },
        {
            "m_Id": "f43f0f77283c44d3bad4b0adf071fa4d"
        },
        {
            "m_Id": "4d84ca3875be42aab44da1daab9b99b4"
        },
        {
            "m_Id": "a8ee7e3b0c384839b8f63c0853fba2ff"
        },
        {
            "m_Id": "b51c70cdf398415aabfd0e6a574a16e9"
        },
        {
            "m_Id": "dd64bfbef4e645a3a6c4a1f7899ccd60"
        },
        {
            "m_Id": "ad59f089a7654e94882d02d445518f62"
        },
        {
            "m_Id": "760c6a9be1a34cee9e628dedbb756037"
        },
        {
            "m_Id": "31e439f297da49649fc83c05dc31f1fd"
        },
        {
            "m_Id": "bca656cd922644fdae8fb5b8b8950abb"
        },
        {
            "m_Id": "b6a6ecf034dc4ee3947301f04d3faeb0"
        },
        {
            "m_Id": "082c7d61866c4a8595c6ec4ce515d976"
        },
        {
            "m_Id": "1c5f5d2540654367be5cc9e3eeead11b"
        },
        {
            "m_Id": "626cc6b457ee44d5aa10ae7fc1df30d6"
        },
        {
            "m_Id": "6e9eea322b7c44cb8224d0c84d1aa89d"
        }
    ],
    "m_GroupDatas": [],
    "m_StickyNoteDatas": [],
    "m_Edges": [
        {
            "m_OutputSlot": {
                "m_Node": {
                    "m_Id": "082c7d61866c4a8595c6ec4ce515d976"
                },
                "m_SlotId": 0
            },
            "m_InputSlot": {
                "m_Node": {
                    "m_Id": "760c6a9be1a34cee9e628dedbb756037"
                },
                "m_SlotId": 1
            }
        },
        {
            "m_OutputSlot": {
                "m_Node": {
                    "m_Id": "1c5f5d2540654367be5cc9e3eeead11b"
                },
                "m_SlotId": 0
            },
            "m_InputSlot": {
                "m_Node": {
                    "m_Id": "08421265332e477db9a0753cba8d4fc7"
                },
                "m_SlotId": 0
            }
        },
        {
            "m_OutputSlot": {
                "m_Node": {
                    "m_Id": "31e439f297da49649fc83c05dc31f1fd"
                },
                "m_SlotId": 2
            },
            "m_InputSlot": {
                "m_Node": {
                    "m_Id": "b51c70cdf398415aabfd0e6a574a16e9"
                },
                "m_SlotId": 0
            }
        },
        {
            "m_OutputSlot": {
                "m_Node": {
                    "m_Id": "626cc6b457ee44d5aa10ae7fc1df30d6"
                },
                "m_SlotId": 0
            },
            "m_InputSlot": {
                "m_Node": {
                    "m_Id": "bca656cd922644fdae8fb5b8b8950abb"
                },
                "m_SlotId": 1
            }
        },
        {
            "m_OutputSlot": {
                "m_Node": {
                    "m_Id": "6e9eea322b7c44cb8224d0c84d1aa89d"
                },
                "m_SlotId": 0
            },
            "m_InputSlot": {
                "m_Node": {
                    "m_Id": "bca656cd922644fdae8fb5b8b8950abb"
                },
                "m_SlotId": 2
            }
        },
        {
            "m_OutputSlot": {
                "m_Node": {
                    "m_Id": "760c6a9be1a34cee9e628dedbb756037"
                },
                "m_SlotId": 2
            },
            "m_InputSlot": {
                "m_Node": {
                    "m_Id": "31e439f297da49649fc83c05dc31f1fd"
                },
                "m_SlotId": 0
            }
        },
        {
            "m_OutputSlot": {
                "m_Node": {
                    "m_Id": "ad59f089a7654e94882d02d445518f62"
                },
                "m_SlotId": 3
            },
            "m_InputSlot": {
                "m_Node": {
                    "m_Id": "760c6a9be1a34cee9e628dedbb756037"
                },
                "m_SlotId": 0
            }
        },
        {
            "m_OutputSlot": {
                "m_Node": {
                    "m_Id": "b6a6ecf034dc4ee3947301f04d3faeb0"
                },
                "m_SlotId": 1
            },
            "m_InputSlot": {
                "m_Node": {
                    "m_Id": "bca656cd922644fdae8fb5b8b8950abb"
                },
                "m_SlotId": 0
            }
        },
        {
            "m_OutputSlot": {
                "m_Node": {
                    "m_Id": "bca656cd922644fdae8fb5b8b8950abb"
                },
                "m_SlotId": 3
            },
            "m_InputSlot": {
                "m_Node": {
                    "m_Id": "31e439f297da49649fc83c05dc31f1fd"
                },
                "m_SlotId": 1
            }
        }
    ],
    "m_VertexContext": {
        "m_Position": {
            "x": 1231.333251953125,
            "y": 205.3333282470703
        },
        "m_Blocks": [
            {
                "m_Id": "85b757b396f04b87af7e64764807c5a2"
            },
            {
                "m_Id": "257661ba6f80498daceb0d475841d197"
            },
            {
                "m_Id": "a50bd42dd31b414698225e8d8bfab5dd"
            }
        ]
    },
    "m_FragmentContext": {
        "m_Position": {
            "x": 1231.333251953125,
            "y": 405.3333740234375
        },
        "m_Blocks": [
            {
                "m_Id": "08421265332e477db9a0753cba8d4fc7"
            },
            {
                "m_Id": "f43f0f77283c44d3bad4b0adf071fa4d"
            },
            {
                "m_Id": "4d84ca3875be42aab44da1daab9b99b4"
            },
            {
                "m_Id": "a8ee7e3b0c384839b8f63c0853fba2ff"
            },
            {
                "m_Id": "b51c70cdf398415aabfd0e6a574a16e9"
            },
            {
                "m_Id": "dd64bfbef4e645a3a6c4a1f7899ccd60"
            }
        ]
    },
    "m_PreviewData": {
        "serializedMesh": {
            "m_SerializedMesh": "{\"mesh\":{\"instanceID\":0}}",
            "m_Guid": ""
        },
        "preventRotation": false
    },
    "m_Path": "Shader Graphs",
    "m_GraphPrecision": 1,
    "m_PreviewMode": 2,
    "m_OutputNode": {
        "m_Id": ""
    },
    "m_ActiveTargets": [
        {
            "m_Id": "7ac821ee932641c28523b53e2ed0c937"
        }
    ]
}

{
    "m_SGVersion": 0,
    "m_Type": "UnityEditor.ShaderGraph.Vector4MaterialSlot",
    "m_ObjectId": "020919f43b5a4ab7b64f357cc7ce3c56",
    "m_Id": 0,
    "m_DisplayName": "Color (1)",
    "m_SlotType": 1,
    "m_Hidden": false,
    "m_ShaderOutputName": "Out",
    "m_StageCapability": 3,
    "m_Value": {
        "x": 0.0,
        "y": 0.0,
        "z": 0.0,
        "w": 0.0
    },
    "m_DefaultValue": {
        "x": 0.0,
        "y": 0.0,
        "z": 0.0,
        "w": 0.0
    },
    "m_Labels": []
}

{
    "m_SGVersion": 0,
    "m_Type": "UnityEditor.ShaderGraph.CategoryData",
    "m_ObjectId": "043ffd1e4975440590c0a49a0b632529",
    "m_Name": "",
    "m_ChildObjectList": [
        {
            "m_Id": "af7a0a7b174144be890124e12b2decfd"
        },
        {
            "m_Id": "226dd7d867334f80afd83b49c979a441"
        },
        {
            "m_Id": "e6c24d81be174932bc18bc09bc83941a"
        },
        {
            "m_Id": "f7b429cd7b204ad693343b4dc1d1f09c"
        }
    ]
}

{
    "m_SGVersion": 0,
    "m_Type": "UnityEditor.ShaderGraph.Vector1MaterialSlot",
    "m_ObjectId": "07570aca5adf47c4a8feac252a34b441",
    "m_Id": 2,
    "m_DisplayName": "Power",
    "m_SlotType": 0,
    "m_Hidden": false,
    "m_ShaderOutputName": "Power",
    "m_StageCapability": 3,
    "m_Value": 2.0,
    "m_DefaultValue": 1.0,
    "m_Labels": []
}

{
    "m_SGVersion": 0,
    "m_Type": "UnityEditor.ShaderGraph.PropertyNode",
    "m_ObjectId": "082c7d61866c4a8595c6ec4ce515d976",
    "m_Group": {
        "m_Id": ""
    },
    "m_Name": "Property",
    "m_DrawState": {
        "m_Expanded": true,
        "m_Position": {
            "serializedVersion": "2",
            "x": 102.57923126220703,
            "y": 461.2712097167969,
            "width": 0.0,
            "height": 0.0
        }
    },
    "m_Slots": [
        {
            "m_Id": "aae2a7f3acd444d0b6845ff3107fb79e"
        }
    ],
    "synonyms": [],
    "m_Precision": 0,
    "m_PreviewExpanded": true,
    "m_PreviewMode": 0,
    "m_CustomColors": {
        "m_SerializableColors": []
    },
    "m_Property": {
        "m_Id": "af7a0a7b174144be890124e12b2decfd"
    }
}

{
    "m_SGVersion": 0,
    "m_Type": "UnityEditor.ShaderGraph.BlockNode",
    "m_ObjectId": "08421265332e477db9a0753cba8d4fc7",
    "m_Group": {
        "m_Id": ""
    },
    "m_Name": "SurfaceDescription.BaseColor",
    "m_DrawState": {
        "m_Expanded": true,
        "m_Position": {
            "serializedVersion": "2",
            "x": 0.0,
            "y": 0.0,
            "width": 0.0,
            "height": 0.0
        }
    },
    "m_Slots": [
        {
            "m_Id": "c265a8f0725b4ae6a39178f8a2f01029"
        }
    ],
    "synonyms": [],
    "m_Precision": 0,
    "m_PreviewExpanded": true,
    "m_PreviewMode": 0,
    "m_CustomColors": {
        "m_SerializableColors": []
    },
    "m_SerializedDescriptor": "SurfaceDescription.BaseColor"
}

{
    "m_SGVersion": 0,
    "m_Type": "UnityEditor.ShaderGraph.Vector1MaterialSlot",
    "m_ObjectId": "115ce546395e4dd2a4d7cade80750059",
    "m_Id": 3,
    "m_DisplayName": "Out",
    "m_SlotType": 1,
    "m_Hidden": false,
    "m_ShaderOutputName": "Out",
    "m_StageCapability": 3,
    "m_Value": 0.0,
    "m_DefaultValue": 0.0,
    "m_Labels": []
}

{
    "m_SGVersion": 0,
    "m_Type": "UnityEditor.ShaderGraph.NormalMaterialSlot",
    "m_ObjectId": "16d28e1c97bb4992ae8e6e5a03f15686",
    "m_Id": 0,
    "m_DisplayName": "Normal",
    "m_SlotType": 0,
    "m_Hidden": false,
    "m_ShaderOutputName": "Normal",
    "m_StageCapability": 1,
    "m_Value": {
        "x": 0.0,
        "y": 0.0,
        "z": 0.0
    },
    "m_DefaultValue": {
        "x": 0.0,
        "y": 0.0,
        "z": 0.0
    },
    "m_Labels": [],
    "m_Space": 0
}

{
    "m_SGVersion": 0,
    "m_Type": "UnityEditor.ShaderGraph.Vector1MaterialSlot",
    "m_ObjectId": "1c3da27cf1a4424492d03d10fcee675d",
    "m_Id": 4,
    "m_DisplayName": "Smooth Delta",
    "m_SlotType": 1,
    "m_Hidden": false,
    "m_ShaderOutputName": "Smooth Delta",
    "m_StageCapability": 3,
    "m_Value": 0.0,
    "m_DefaultValue": 0.0,
    "m_Labels": []
}

{
    "m_SGVersion": 0,
    "m_Type": "UnityEditor.ShaderGraph.PropertyNode",
    "m_ObjectId": "1c5f5d2540654367be5cc9e3eeead11b",
    "m_Group": {
        "m_Id": ""
    },
    "m_Name": "Property",
    "m_DrawState": {
        "m_Expanded": true,
        "m_Position": {
            "serializedVersion": "2",
            "x": 939.3037719726563,
            "y": 276.8968200683594,
            "width": 0.0,
            "height": 0.0
        }
    },
    "m_Slots": [
        {
            "m_Id": "020919f43b5a4ab7b64f357cc7ce3c56"
        }
    ],
    "synonyms": [],
    "m_Precision": 0,
    "m_PreviewExpanded": true,
    "m_PreviewMode": 0,
    "m_CustomColors": {
        "m_SerializableColors": []
    },
    "m_Property": {
        "m_Id": "226dd7d867334f80afd83b49c979a441"
    }
}

{
    "m_SGVersion": 3,
    "m_Type": "UnityEditor.ShaderGraph.Internal.ColorShaderProperty",
    "m_ObjectId": "226dd7d867334f80afd83b49c979a441",
    "m_Guid": {
        "m_GuidSerialized": "a7a010a0-08f5-41dc-ac30-9fd884146040"
    },
    "m_Name": "Color (1)",
    "m_DefaultRefNameVersion": 1,
    "m_RefNameGeneratedByDisplayName": "Color (1)",
    "m_DefaultReferenceName": "_Color_1",
    "m_OverrideReferenceName": "",
    "m_GeneratePropertyBlock": true,
    "m_UseCustomSlotLabel": false,
    "m_CustomSlotLabel": "",
    "m_Precision": 0,
    "overrideHLSLDeclaration": false,
    "hlslDeclarationOverride": 0,
    "m_Hidden": false,
    "m_Value": {
        "r": 0.0,
        "g": 0.0,
        "b": 0.0,
        "a": 0.0
    },
    "isMainColor": false,
    "m_ColorMode": 0
}

{
    "m_SGVersion": 0,
    "m_Type": "UnityEditor.ShaderGraph.BlockNode",
    "m_ObjectId": "257661ba6f80498daceb0d475841d197",
    "m_Group": {
        "m_Id": ""
    },
    "m_Name": "VertexDescription.Normal",
    "m_DrawState": {
        "m_Expanded": true,
        "m_Position": {
            "serializedVersion": "2",
            "x": 0.0,
            "y": 0.0,
            "width": 0.0,
            "height": 0.0
        }
    },
    "m_Slots": [
        {
            "m_Id": "16d28e1c97bb4992ae8e6e5a03f15686"
        }
    ],
    "synonyms": [],
    "m_Precision": 0,
    "m_PreviewExpanded": true,
    "m_PreviewMode": 0,
    "m_CustomColors": {
        "m_SerializableColors": []
    },
    "m_SerializedDescriptor": "VertexDescription.Normal"
}

{
    "m_SGVersion": 0,
    "m_Type": "UnityEditor.ShaderGraph.MultiplyNode",
    "m_ObjectId": "31e439f297da49649fc83c05dc31f1fd",
    "m_Group": {
        "m_Id": ""
    },
    "m_Name": "Multiply",
    "m_DrawState": {
        "m_Expanded": true,
        "m_Position": {
            "serializedVersion": "2",
            "x": 782.6666870117188,
            "y": 381.3333435058594,
            "width": 209.333251953125,
            "height": 304.0000305175781
        }
    },
    "m_Slots": [
        {
            "m_Id": "55f7619de7734264b4a8822078c5ad5e"
        },
        {
            "m_Id": "e5eeb42d98084bc0a4b9e15038de84fc"
        },
        {
            "m_Id": "5944f93678fb41e7a5bcdd32f690a17f"
        }
    ],
    "synonyms": [
        "multiplication",
        "times",
        "x"
    ],
    "m_Precision": 0,
    "m_PreviewExpanded": true,
    "m_PreviewMode": 0,
    "m_CustomColors": {
        "m_SerializableColors": []
    }
}

{
    "m_SGVersion": 0,
    "m_Type": "UnityEditor.ShaderGraph.Vector1MaterialSlot",
    "m_ObjectId": "3548061977d44c3499928260b78d70c7",
    "m_Id": 0,
    "m_DisplayName": "Ambient Occlusion",
    "m_SlotType": 0,
    "m_Hidden": false,
    "m_ShaderOutputName": "Occlusion",
    "m_StageCapability": 2,
    "m_Value": 1.0,
    "m_DefaultValue": 1.0,
    "m_Labels": []
}

{
    "m_SGVersion": 0,
    "m_Type": "UnityEditor.ShaderGraph.Vector1MaterialSlot",
    "m_ObjectId": "42855c07f5ce4326aa807fa79db8bf7d",
    "m_Id": 0,
    "m_DisplayName": "Metallic",
    "m_SlotType": 0,
    "m_Hidden": false,
    "m_ShaderOutputName": "Metallic",
    "m_StageCapability": 2,
    "m_Value": 0.0,
    "m_DefaultValue": 0.0,
    "m_Labels": []
}

{
    "m_SGVersion": 0,
    "m_Type": "UnityEditor.ShaderGraph.Vector1MaterialSlot",
    "m_ObjectId": "4b159fa8976d4e72989cca5bf4780a2b",
    "m_Id": 0,
    "m_DisplayName": "Time",
    "m_SlotType": 1,
    "m_Hidden": false,
    "m_ShaderOutputName": "Time",
    "m_StageCapability": 3,
    "m_Value": 0.0,
    "m_DefaultValue": 0.0,
    "m_Labels": []
}

{
    "m_SGVersion": 0,
    "m_Type": "UnityEditor.ShaderGraph.BlockNode",
    "m_ObjectId": "4d84ca3875be42aab44da1daab9b99b4",
    "m_Group": {
        "m_Id": ""
    },
    "m_Name": "SurfaceDescription.Metallic",
    "m_DrawState": {
        "m_Expanded": true,
        "m_Position": {
            "serializedVersion": "2",
            "x": 0.0,
            "y": 0.0,
            "width": 0.0,
            "height": 0.0
        }
    },
    "m_Slots": [
        {
            "m_Id": "42855c07f5ce4326aa807fa79db8bf7d"
        }
    ],
    "synonyms": [],
    "m_Precision": 0,
    "m_PreviewExpanded": true,
    "m_PreviewMode": 0,
    "m_CustomColors": {
        "m_SerializableColors": []
    },
    "m_SerializedDescriptor": "SurfaceDescription.Metallic"
}

{
    "m_SGVersion": 0,
    "m_Type": "UnityEditor.ShaderGraph.Vector1MaterialSlot",
    "m_ObjectId": "5115c94cbed5406582839d2c681aa802",
    "m_Id": 2,
    "m_DisplayName": "Cosine Time",
    "m_SlotType": 1,
    "m_Hidden": false,
    "m_ShaderOutputName": "Cosine Time",
    "m_StageCapability": 3,
    "m_Value": 0.0,
    "m_DefaultValue": 0.0,
    "m_Labels": []
}

{
    "m_SGVersion": 0,
    "m_Type": "UnityEditor.ShaderGraph.Vector2MaterialSlot",
    "m_ObjectId": "5148887aa6574c82bdfb733ffdd5f41c",
    "m_Id": 2,
    "m_DisplayName": "Out Min Max",
    "m_SlotType": 0,
    "m_Hidden": false,
    "m_ShaderOutputName": "OutMinMax",
    "m_StageCapability": 3,
    "m_Value": {
        "x": 1.0,
        "y": 100.0
    },
    "m_DefaultValue": {
        "x": 0.0,
        "y": 0.0
    },
    "m_Labels": []
}

{
    "m_SGVersion": 0,
    "m_Type": "UnityEditor.ShaderGraph.Vector1MaterialSlot",
    "m_ObjectId": "53a4c563ff3642fb9bb09e025c8b3178",
    "m_Id": 3,
    "m_DisplayName": "Delta Time",
    "m_SlotType": 1,
    "m_Hidden": false,
    "m_ShaderOutputName": "Delta Time",
    "m_StageCapability": 3,
    "m_Value": 0.0,
    "m_DefaultValue": 0.0,
    "m_Labels": []
}

{
    "m_SGVersion": 0,
    "m_Type": "UnityEditor.ShaderGraph.DynamicValueMaterialSlot",
    "m_ObjectId": "55f7619de7734264b4a8822078c5ad5e",
    "m_Id": 0,
    "m_DisplayName": "A",
    "m_SlotType": 0,
    "m_Hidden": false,
    "m_ShaderOutputName": "A",
    "m_StageCapability": 3,
    "m_Value": {
        "e00": 0.0,
        "e01": 0.0,
        "e02": 0.0,
        "e03": 0.0,
        "e10": 0.0,
        "e11": 0.0,
        "e12": 0.0,
        "e13": 0.0,
        "e20": 0.0,
        "e21": 0.0,
        "e22": 0.0,
        "e23": 0.0,
        "e30": 0.0,
        "e31": 0.0,
        "e32": 0.0,
        "e33": 0.0
    },
    "m_DefaultValue": {
        "e00": 1.0,
        "e01": 0.0,
        "e02": 0.0,
        "e03": 0.0,
        "e10": 0.0,
        "e11": 1.0,
        "e12": 0.0,
        "e13": 0.0,
        "e20": 0.0,
        "e21": 0.0,
        "e22": 1.0,
        "e23": 0.0,
        "e30": 0.0,
        "e31": 0.0,
        "e32": 0.0,
        "e33": 1.0
    }
}

{
    "m_SGVersion": 0,
    "m_Type": "UnityEditor.ShaderGraph.DynamicValueMaterialSlot",
    "m_ObjectId": "5944f93678fb41e7a5bcdd32f690a17f",
    "m_Id": 2,
    "m_DisplayName": "Out",
    "m_SlotType": 1,
    "m_Hidden": false,
    "m_ShaderOutputName": "Out",
    "m_StageCapability": 3,
    "m_Value": {
        "e00": 0.0,
        "e01": 0.0,
        "e02": 0.0,
        "e03": 0.0,
        "e10": 0.0,
        "e11": 0.0,
        "e12": 0.0,
        "e13": 0.0,
        "e20": 0.0,
        "e21": 0.0,
        "e22": 0.0,
        "e23": 0.0,
        "e30": 0.0,
        "e31": 0.0,
        "e32": 0.0,
        "e33": 0.0
    },
    "m_DefaultValue": {
        "e00": 1.0,
        "e01": 0.0,
        "e02": 0.0,
        "e03": 0.0,
        "e10": 0.0,
        "e11": 1.0,
        "e12": 0.0,
        "e13": 0.0,
        "e20": 0.0,
        "e21": 0.0,
        "e22": 1.0,
        "e23": 0.0,
        "e30": 0.0,
        "e31": 0.0,
        "e32": 0.0,
        "e33": 1.0
    }
}

{
    "m_SGVersion": 0,
    "m_Type": "UnityEditor.ShaderGraph.PropertyNode",
    "m_ObjectId": "626cc6b457ee44d5aa10ae7fc1df30d6",
    "m_Group": {
        "m_Id": ""
    },
    "m_Name": "Property",
    "m_DrawState": {
        "m_Expanded": true,
        "m_Position": {
            "serializedVersion": "2",
            "x": 202.6666717529297,
            "y": 872.6666259765625,
            "width": 134.66661071777345,
            "height": 36.0
        }
    },
    "m_Slots": [
        {
            "m_Id": "d83b70d7189c4a51a28efb059e4a9b1b"
        }
    ],
    "synonyms": [],
    "m_Precision": 0,
    "m_PreviewExpanded": true,
    "m_PreviewMode": 0,
    "m_CustomColors": {
        "m_SerializableColors": []
    },
    "m_Property": {
        "m_Id": "e6c24d81be174932bc18bc09bc83941a"
    }
}

{
    "m_SGVersion": 0,
    "m_Type": "UnityEditor.ShaderGraph.PositionMaterialSlot",
    "m_ObjectId": "66601050cc5842dbb78d638959a2b8f5",
    "m_Id": 0,
    "m_DisplayName": "Position",
    "m_SlotType": 0,
    "m_Hidden": false,
    "m_ShaderOutputName": "Position",
    "m_StageCapability": 1,
    "m_Value": {
        "x": 0.0,
        "y": 0.0,
        "z": 0.0
    },
    "m_DefaultValue": {
        "x": 0.0,
        "y": 0.0,
        "z": 0.0
    },
    "m_Labels": [],
    "m_Space": 0
}

{
    "m_SGVersion": 0,
    "m_Type": "UnityEditor.ShaderGraph.ViewDirectionMaterialSlot",
    "m_ObjectId": "6b8011ddb1ea451bbd128af754bca252",
    "m_Id": 1,
    "m_DisplayName": "View Dir",
    "m_SlotType": 0,
    "m_Hidden": false,
    "m_ShaderOutputName": "ViewDir",
    "m_StageCapability": 3,
    "m_Value": {
        "x": 0.0,
        "y": 0.0,
        "z": 0.0
    },
    "m_DefaultValue": {
        "x": 0.0,
        "y": 0.0,
        "z": 0.0
    },
    "m_Labels": [],
    "m_Space": 2
}

{
    "m_SGVersion": 0,
    "m_Type": "UnityEditor.ShaderGraph.PropertyNode",
    "m_ObjectId": "6e9eea322b7c44cb8224d0c84d1aa89d",
    "m_Group": {
        "m_Id": ""
    },
    "m_Name": "Property",
    "m_DrawState": {
        "m_Expanded": true,
        "m_Position": {
            "serializedVersion": "2",
            "x": 194.66665649414063,
            "y": 958.0,
            "width": 144.0,
            "height": 35.99993896484375
        }
    },
    "m_Slots": [
        {
            "m_Id": "7c28f378db334decb117d3641d352063"
        }
    ],
    "synonyms": [],
    "m_Precision": 0,
    "m_PreviewExpanded": true,
    "m_PreviewMode": 0,
    "m_CustomColors": {
        "m_SerializableColors": []
    },
    "m_Property": {
        "m_Id": "f7b429cd7b204ad693343b4dc1d1f09c"
    }
}

{
    "m_SGVersion": 0,
    "m_Type": "UnityEditor.ShaderGraph.Vector1MaterialSlot",
    "m_ObjectId": "758fb9d319ce48ab94348ea15b0196e1",
    "m_Id": 0,
    "m_DisplayName": "Smoothness",
    "m_SlotType": 0,
    "m_Hidden": false,
    "m_ShaderOutputName": "Smoothness",
    "m_StageCapability": 2,
    "m_Value": 0.5,
    "m_DefaultValue": 0.5,
    "m_Labels": []
}

{
    "m_SGVersion": 0,
    "m_Type": "UnityEditor.ShaderGraph.MultiplyNode",
    "m_ObjectId": "760c6a9be1a34cee9e628dedbb756037",
    "m_Group": {
        "m_Id": ""
    },
    "m_Name": "Multiply",
    "m_DrawState": {
        "m_Expanded": true,
        "m_Position": {
            "serializedVersion": "2",
            "x": 345.5498962402344,
            "y": 373.6148986816406,
            "width": 0.0,
            "height": 0.0
        }
    },
    "m_Slots": [
        {
            "m_Id": "b0103b59086f4076b44b075523558d38"
        },
        {
            "m_Id": "8fc3caa43d3546128816804de461cb8a"
        },
        {
            "m_Id": "d0610bebec8e4e089c94eab62a6d2563"
        }
    ],
    "synonyms": [
        "multiplication",
        "times",
        "x"
    ],
    "m_Precision": 0,
    "m_PreviewExpanded": true,
    "m_PreviewMode": 0,
    "m_CustomColors": {
        "m_SerializableColors": []
    }
}

{
    "m_SGVersion": 1,
    "m_Type": "UnityEditor.Rendering.Universal.ShaderGraph.UniversalTarget",
    "m_ObjectId": "7ac821ee932641c28523b53e2ed0c937",
    "m_ActiveSubTarget": {
        "m_Id": "ac34d7898ed94f41afdaceb948812044"
    },
    "m_AllowMaterialOverride": false,
    "m_SurfaceType": 0,
    "m_ZTestMode": 4,
    "m_ZWriteControl": 0,
    "m_AlphaMode": 0,
    "m_RenderFace": 2,
    "m_AlphaClip": false,
    "m_CastShadows": true,
    "m_ReceiveShadows": true,
    "m_CustomEditorGUI": "",
    "m_SupportVFX": false
}

{
    "m_SGVersion": 0,
    "m_Type": "UnityEditor.ShaderGraph.Vector2MaterialSlot",
    "m_ObjectId": "7b208682a933469aa5198bb5d2250ce8",
    "m_Id": 1,
    "m_DisplayName": "In Min Max",
    "m_SlotType": 0,
    "m_Hidden": false,
    "m_ShaderOutputName": "InMinMax",
    "m_StageCapability": 3,
    "m_Value": {
        "x": -5.0,
        "y": 100.0
    },
    "m_DefaultValue": {
        "x": 0.0,
        "y": 0.0
    },
    "m_Labels": []
}

{
    "m_SGVersion": 0,
    "m_Type": "UnityEditor.ShaderGraph.Vector2MaterialSlot",
    "m_ObjectId": "7c28f378db334decb117d3641d352063",
    "m_Id": 0,
    "m_DisplayName": "Out Min Max",
    "m_SlotType": 1,
    "m_Hidden": false,
    "m_ShaderOutputName": "Out",
    "m_StageCapability": 3,
    "m_Value": {
        "x": 0.0,
        "y": 0.0
    },
    "m_DefaultValue": {
        "x": 0.0,
        "y": 0.0
    },
    "m_Labels": []
}

{
    "m_SGVersion": 0,
    "m_Type": "UnityEditor.ShaderGraph.NormalMaterialSlot",
    "m_ObjectId": "814d987b2d954ecca5e8f7e11c88b0d3",
    "m_Id": 0,
    "m_DisplayName": "Normal (Tangent Space)",
    "m_SlotType": 0,
    "m_Hidden": false,
    "m_ShaderOutputName": "NormalTS",
    "m_StageCapability": 2,
    "m_Value": {
        "x": 0.0,
        "y": 0.0,
        "z": 0.0
    },
    "m_DefaultValue": {
        "x": 0.0,
        "y": 0.0,
        "z": 0.0
    },
    "m_Labels": [],
    "m_Space": 3
}

{
    "m_SGVersion": 0,
    "m_Type": "UnityEditor.ShaderGraph.ColorRGBMaterialSlot",
    "m_ObjectId": "84a421546cc14862bae7a3b678d2df11",
    "m_Id": 0,
    "m_DisplayName": "Emission",
    "m_SlotType": 0,
    "m_Hidden": false,
    "m_ShaderOutputName": "Emission",
    "m_StageCapability": 2,
    "m_Value": {
        "x": 0.0,
        "y": 0.0,
        "z": 0.0
    },
    "m_DefaultValue": {
        "x": 0.0,
        "y": 0.0,
        "z": 0.0
    },
    "m_Labels": [],
    "m_ColorMode": 1,
    "m_DefaultColor": {
        "r": 0.0,
        "g": 0.0,
        "b": 0.0,
        "a": 1.0
    }
}

{
    "m_SGVersion": 0,
    "m_Type": "UnityEditor.ShaderGraph.BlockNode",
    "m_ObjectId": "85b757b396f04b87af7e64764807c5a2",
    "m_Group": {
        "m_Id": ""
    },
    "m_Name": "VertexDescription.Position",
    "m_DrawState": {
        "m_Expanded": true,
        "m_Position": {
            "serializedVersion": "2",
            "x": 0.0,
            "y": 0.0,
            "width": 0.0,
            "height": 0.0
        }
    },
    "m_Slots": [
        {
            "m_Id": "66601050cc5842dbb78d638959a2b8f5"
        }
    ],
    "synonyms": [],
    "m_Precision": 0,
    "m_PreviewExpanded": true,
    "m_PreviewMode": 0,
    "m_CustomColors": {
        "m_SerializableColors": []
    },
    "m_SerializedDescriptor": "VertexDescription.Position"
}

{
    "m_SGVersion": 0,
    "m_Type": "UnityEditor.ShaderGraph.DynamicValueMaterialSlot",
    "m_ObjectId": "8fc3caa43d3546128816804de461cb8a",
    "m_Id": 1,
    "m_DisplayName": "B",
    "m_SlotType": 0,
    "m_Hidden": false,
    "m_ShaderOutputName": "B",
    "m_StageCapability": 3,
    "m_Value": {
        "e00": 2.0,
        "e01": 2.0,
        "e02": 2.0,
        "e03": 2.0,
        "e10": 2.0,
        "e11": 2.0,
        "e12": 2.0,
        "e13": 2.0,
        "e20": 2.0,
        "e21": 2.0,
        "e22": 2.0,
        "e23": 2.0,
        "e30": 2.0,
        "e31": 2.0,
        "e32": 2.0,
        "e33": 2.0
    },
    "m_DefaultValue": {
        "e00": 1.0,
        "e01": 0.0,
        "e02": 0.0,
        "e03": 0.0,
        "e10": 0.0,
        "e11": 1.0,
        "e12": 0.0,
        "e13": 0.0,
        "e20": 0.0,
        "e21": 0.0,
        "e22": 1.0,
        "e23": 0.0,
        "e30": 0.0,
        "e31": 0.0,
        "e32": 0.0,
        "e33": 1.0
    }
}

{
    "m_SGVersion": 0,
    "m_Type": "UnityEditor.ShaderGraph.NormalMaterialSlot",
    "m_ObjectId": "97e13a34c4364448aa03ab44b8c4056a",
    "m_Id": 0,
    "m_DisplayName": "Normal",
    "m_SlotType": 0,
    "m_Hidden": false,
    "m_ShaderOutputName": "Normal",
    "m_StageCapability": 3,
    "m_Value": {
        "x": 0.0,
        "y": 0.0,
        "z": 0.0
    },
    "m_DefaultValue": {
        "x": 0.0,
        "y": 0.0,
        "z": 0.0
    },
    "m_Labels": [],
    "m_Space": 2
}

{
    "m_SGVersion": 0,
    "m_Type": "UnityEditor.ShaderGraph.TangentMaterialSlot",
    "m_ObjectId": "9acfb7c4c1d740ad87b91e164a16019a",
    "m_Id": 0,
    "m_DisplayName": "Tangent",
    "m_SlotType": 0,
    "m_Hidden": false,
    "m_ShaderOutputName": "Tangent",
    "m_StageCapability": 1,
    "m_Value": {
        "x": 0.0,
        "y": 0.0,
        "z": 0.0
    },
    "m_DefaultValue": {
        "x": 0.0,
        "y": 0.0,
        "z": 0.0
    },
    "m_Labels": [],
    "m_Space": 0
}

{
    "m_SGVersion": 0,
    "m_Type": "UnityEditor.ShaderGraph.DynamicVectorMaterialSlot",
    "m_ObjectId": "a026206b933a4c47850fdff840ffd309",
    "m_Id": 0,
    "m_DisplayName": "In",
    "m_SlotType": 0,
    "m_Hidden": false,
    "m_ShaderOutputName": "In",
    "m_StageCapability": 3,
    "m_Value": {
        "x": -1.0,
        "y": -1.0,
        "z": -1.0,
        "w": -1.0
    },
    "m_DefaultValue": {
        "x": 0.0,
        "y": 0.0,
        "z": 0.0,
        "w": 0.0
    }
}

{
    "m_SGVersion": 0,
    "m_Type": "UnityEditor.ShaderGraph.BlockNode",
    "m_ObjectId": "a50bd42dd31b414698225e8d8bfab5dd",
    "m_Group": {
        "m_Id": ""
    },
    "m_Name": "VertexDescription.Tangent",
    "m_DrawState": {
        "m_Expanded": true,
        "m_Position": {
            "serializedVersion": "2",
            "x": 0.0,
            "y": 0.0,
            "width": 0.0,
            "height": 0.0
        }
    },
    "m_Slots": [
        {
            "m_Id": "9acfb7c4c1d740ad87b91e164a16019a"
        }
    ],
    "synonyms": [],
    "m_Precision": 0,
    "m_PreviewExpanded": true,
    "m_PreviewMode": 0,
    "m_CustomColors": {
        "m_SerializableColors": []
    },
    "m_SerializedDescriptor": "VertexDescription.Tangent"
}

{
    "m_SGVersion": 0,
    "m_Type": "UnityEditor.ShaderGraph.BlockNode",
    "m_ObjectId": "a8ee7e3b0c384839b8f63c0853fba2ff",
    "m_Group": {
        "m_Id": ""
    },
    "m_Name": "SurfaceDescription.Smoothness",
    "m_DrawState": {
        "m_Expanded": true,
        "m_Position": {
            "serializedVersion": "2",
            "x": 0.0,
            "y": 0.0,
            "width": 0.0,
            "height": 0.0
        }
    },
    "m_Slots": [
        {
            "m_Id": "758fb9d319ce48ab94348ea15b0196e1"
        }
    ],
    "synonyms": [],
    "m_Precision": 0,
    "m_PreviewExpanded": true,
    "m_PreviewMode": 0,
    "m_CustomColors": {
        "m_SerializableColors": []
    },
    "m_SerializedDescriptor": "SurfaceDescription.Smoothness"
}

{
    "m_SGVersion": 0,
    "m_Type": "UnityEditor.ShaderGraph.Vector4MaterialSlot",
    "m_ObjectId": "aae2a7f3acd444d0b6845ff3107fb79e",
    "m_Id": 0,
    "m_DisplayName": "Color",
    "m_SlotType": 1,
    "m_Hidden": false,
    "m_ShaderOutputName": "Out",
    "m_StageCapability": 3,
    "m_Value": {
        "x": 0.0,
        "y": 0.0,
        "z": 0.0,
        "w": 0.0
    },
    "m_DefaultValue": {
        "x": 0.0,
        "y": 0.0,
        "z": 0.0,
        "w": 0.0
    },
    "m_Labels": []
}

{
    "m_SGVersion": 0,
    "m_Type": "UnityEditor.Rendering.Universal.ShaderGraph.UniversalLitSubTarget",
    "m_ObjectId": "ac34d7898ed94f41afdaceb948812044",
    "m_WorkflowMode": 1,
    "m_NormalDropOffSpace": 0,
    "m_ClearCoat": false
}

{
    "m_SGVersion": 0,
    "m_Type": "UnityEditor.ShaderGraph.FresnelNode",
    "m_ObjectId": "ad59f089a7654e94882d02d445518f62",
    "m_Group": {
        "m_Id": ""
    },
    "m_Name": "Fresnel Effect",
    "m_DrawState": {
        "m_Expanded": true,
        "m_Position": {
            "serializedVersion": "2",
            "x": 29.999998092651368,
            "y": 37.33333969116211,
            "width": 209.3332977294922,
            "height": 327.9999694824219
        }
    },
    "m_Slots": [
        {
            "m_Id": "97e13a34c4364448aa03ab44b8c4056a"
        },
        {
            "m_Id": "6b8011ddb1ea451bbd128af754bca252"
        },
        {
            "m_Id": "07570aca5adf47c4a8feac252a34b441"
        },
        {
            "m_Id": "115ce546395e4dd2a4d7cade80750059"
        }
    ],
    "synonyms": [],
    "m_Precision": 0,
    "m_PreviewExpanded": true,
    "m_PreviewMode": 2,
    "m_CustomColors": {
        "m_SerializableColors": []
    }
}

{
    "m_SGVersion": 3,
    "m_Type": "UnityEditor.ShaderGraph.Internal.ColorShaderProperty",
    "m_ObjectId": "af7a0a7b174144be890124e12b2decfd",
    "m_Guid": {
        "m_GuidSerialized": "417dadc6-aefe-4a98-8d3f-9187121051ec"
    },
    "m_Name": "Color",
    "m_DefaultRefNameVersion": 1,
    "m_RefNameGeneratedByDisplayName": "Color",
    "m_DefaultReferenceName": "_Color",
    "m_OverrideReferenceName": "",
    "m_GeneratePropertyBlock": true,
    "m_UseCustomSlotLabel": false,
    "m_CustomSlotLabel": "",
    "m_Precision": 0,
    "overrideHLSLDeclaration": false,
    "hlslDeclarationOverride": 0,
    "m_Hidden": false,
    "m_Value": {
        "r": 0.0,
        "g": 1.0,
        "b": 0.0,
        "a": 1.0
    },
    "isMainColor": false,
    "m_ColorMode": 1
}

{
    "m_SGVersion": 0,
    "m_Type": "UnityEditor.ShaderGraph.DynamicValueMaterialSlot",
    "m_ObjectId": "b0103b59086f4076b44b075523558d38",
    "m_Id": 0,
    "m_DisplayName": "A",
    "m_SlotType": 0,
    "m_Hidden": false,
    "m_ShaderOutputName": "A",
    "m_StageCapability": 3,
    "m_Value": {
        "e00": 0.0,
        "e01": 0.0,
        "e02": 0.0,
        "e03": 0.0,
        "e10": 0.0,
        "e11": 0.0,
        "e12": 0.0,
        "e13": 0.0,
        "e20": 0.0,
        "e21": 0.0,
        "e22": 0.0,
        "e23": 0.0,
        "e30": 0.0,
        "e31": 0.0,
        "e32": 0.0,
        "e33": 0.0
    },
    "m_DefaultValue": {
        "e00": 1.0,
        "e01": 0.0,
        "e02": 0.0,
        "e03": 0.0,
        "e10": 0.0,
        "e11": 1.0,
        "e12": 0.0,
        "e13": 0.0,
        "e20": 0.0,
        "e21": 0.0,
        "e22": 1.0,
        "e23": 0.0,
        "e30": 0.0,
        "e31": 0.0,
        "e32": 0.0,
        "e33": 1.0
    }
}

{
    "m_SGVersion": 0,
    "m_Type": "UnityEditor.ShaderGraph.BlockNode",
    "m_ObjectId": "b51c70cdf398415aabfd0e6a574a16e9",
    "m_Group": {
        "m_Id": ""
    },
    "m_Name": "SurfaceDescription.Emission",
    "m_DrawState": {
        "m_Expanded": true,
        "m_Position": {
            "serializedVersion": "2",
            "x": 0.0,
            "y": 0.0,
            "width": 0.0,
            "height": 0.0
        }
    },
    "m_Slots": [
        {
            "m_Id": "84a421546cc14862bae7a3b678d2df11"
        }
    ],
    "synonyms": [],
    "m_Precision": 0,
    "m_PreviewExpanded": true,
    "m_PreviewMode": 0,
    "m_CustomColors": {
        "m_SerializableColors": []
    },
    "m_SerializedDescriptor": "SurfaceDescription.Emission"
}

{
    "m_SGVersion": 0,
    "m_Type": "UnityEditor.ShaderGraph.TimeNode",
    "m_ObjectId": "b6a6ecf034dc4ee3947301f04d3faeb0",
    "m_Group": {
        "m_Id": ""
    },
    "m_Name": "Time",
    "m_DrawState": {
        "m_Expanded": true,
        "m_Position": {
            "serializedVersion": "2",
            "x": -3.3332433700561525,
            "y": 712.0,
            "width": 125.33330535888672,
            "height": 174.6666259765625
        }
    },
    "m_Slots": [
        {
            "m_Id": "4b159fa8976d4e72989cca5bf4780a2b"
        },
        {
            "m_Id": "dcce3f32d4a44168a6196a044d4f3ef3"
        },
        {
            "m_Id": "5115c94cbed5406582839d2c681aa802"
        },
        {
            "m_Id": "53a4c563ff3642fb9bb09e025c8b3178"
        },
        {
            "m_Id": "1c3da27cf1a4424492d03d10fcee675d"
        }
    ],
    "synonyms": [],
    "m_Precision": 0,
    "m_PreviewExpanded": true,
    "m_PreviewMode": 0,
    "m_CustomColors": {
        "m_SerializableColors": []
    }
}

{
    "m_SGVersion": 0,
    "m_Type": "UnityEditor.ShaderGraph.RemapNode",
    "m_ObjectId": "bca656cd922644fdae8fb5b8b8950abb",
    "m_Group": {
        "m_Id": ""
    },
    "m_Name": "Remap",
    "m_DrawState": {
        "m_Expanded": true,
        "m_Position": {
            "serializedVersion": "2",
            "x": 412.6666259765625,
            "y": 825.3333129882813,
            "width": 209.3333740234375,
            "height": 327.99993896484377
        }
    },
    "m_Slots": [
        {
            "m_Id": "a026206b933a4c47850fdff840ffd309"
        },
        {
            "m_Id": "7b208682a933469aa5198bb5d2250ce8"
        },
        {
            "m_Id": "5148887aa6574c82bdfb733ffdd5f41c"
        },
        {
            "m_Id": "c1056684ccde4d34ba3d2fb973029b65"
        }
    ],
    "synonyms": [],
    "m_Precision": 0,
    "m_PreviewExpanded": true,
    "m_PreviewMode": 0,
    "m_CustomColors": {
        "m_SerializableColors": []
    }
}

{
    "m_SGVersion": 0,
    "m_Type": "UnityEditor.ShaderGraph.DynamicVectorMaterialSlot",
    "m_ObjectId": "c1056684ccde4d34ba3d2fb973029b65",
    "m_Id": 3,
    "m_DisplayName": "Out",
    "m_SlotType": 1,
    "m_Hidden": false,
    "m_ShaderOutputName": "Out",
    "m_StageCapability": 3,
    "m_Value": {
        "x": 0.0,
        "y": 0.0,
        "z": 0.0,
        "w": 0.0
    },
    "m_DefaultValue": {
        "x": 0.0,
        "y": 0.0,
        "z": 0.0,
        "w": 0.0
    }
}

{
    "m_SGVersion": 0,
    "m_Type": "UnityEditor.ShaderGraph.ColorRGBMaterialSlot",
    "m_ObjectId": "c265a8f0725b4ae6a39178f8a2f01029",
    "m_Id": 0,
    "m_DisplayName": "Base Color",
    "m_SlotType": 0,
    "m_Hidden": false,
    "m_ShaderOutputName": "BaseColor",
    "m_StageCapability": 2,
    "m_Value": {
        "x": 0.5,
        "y": 0.5,
        "z": 0.5
    },
    "m_DefaultValue": {
        "x": 0.0,
        "y": 0.0,
        "z": 0.0
    },
    "m_Labels": [],
    "m_ColorMode": 0,
    "m_DefaultColor": {
        "r": 0.5,
        "g": 0.5,
        "b": 0.5,
        "a": 1.0
    }
}

{
    "m_SGVersion": 0,
    "m_Type": "UnityEditor.ShaderGraph.DynamicValueMaterialSlot",
    "m_ObjectId": "d0610bebec8e4e089c94eab62a6d2563",
    "m_Id": 2,
    "m_DisplayName": "Out",
    "m_SlotType": 1,
    "m_Hidden": false,
    "m_ShaderOutputName": "Out",
    "m_StageCapability": 3,
    "m_Value": {
        "e00": 0.0,
        "e01": 0.0,
        "e02": 0.0,
        "e03": 0.0,
        "e10": 0.0,
        "e11": 0.0,
        "e12": 0.0,
        "e13": 0.0,
        "e20": 0.0,
        "e21": 0.0,
        "e22": 0.0,
        "e23": 0.0,
        "e30": 0.0,
        "e31": 0.0,
        "e32": 0.0,
        "e33": 0.0
    },
    "m_DefaultValue": {
        "e00": 1.0,
        "e01": 0.0,
        "e02": 0.0,
        "e03": 0.0,
        "e10": 0.0,
        "e11": 1.0,
        "e12": 0.0,
        "e13": 0.0,
        "e20": 0.0,
        "e21": 0.0,
        "e22": 1.0,
        "e23": 0.0,
        "e30": 0.0,
        "e31": 0.0,
        "e32": 0.0,
        "e33": 1.0
    }
}

{
    "m_SGVersion": 0,
    "m_Type": "UnityEditor.ShaderGraph.Vector2MaterialSlot",
    "m_ObjectId": "d83b70d7189c4a51a28efb059e4a9b1b",
    "m_Id": 0,
    "m_DisplayName": "In Min Max",
    "m_SlotType": 1,
    "m_Hidden": false,
    "m_ShaderOutputName": "Out",
    "m_StageCapability": 3,
    "m_Value": {
        "x": 0.0,
        "y": 0.0
    },
    "m_DefaultValue": {
        "x": 0.0,
        "y": 0.0
    },
    "m_Labels": []
}

{
    "m_SGVersion": 0,
    "m_Type": "UnityEditor.ShaderGraph.Vector1MaterialSlot",
    "m_ObjectId": "dcce3f32d4a44168a6196a044d4f3ef3",
    "m_Id": 1,
    "m_DisplayName": "Sine Time",
    "m_SlotType": 1,
    "m_Hidden": false,
    "m_ShaderOutputName": "Sine Time",
    "m_StageCapability": 3,
    "m_Value": 0.0,
    "m_DefaultValue": 0.0,
    "m_Labels": []
}

{
    "m_SGVersion": 0,
    "m_Type": "UnityEditor.ShaderGraph.BlockNode",
    "m_ObjectId": "dd64bfbef4e645a3a6c4a1f7899ccd60",
    "m_Group": {
        "m_Id": ""
    },
    "m_Name": "SurfaceDescription.Occlusion",
    "m_DrawState": {
        "m_Expanded": true,
        "m_Position": {
            "serializedVersion": "2",
            "x": 0.0,
            "y": 0.0,
            "width": 0.0,
            "height": 0.0
        }
    },
    "m_Slots": [
        {
            "m_Id": "3548061977d44c3499928260b78d70c7"
        }
    ],
    "synonyms": [],
    "m_Precision": 0,
    "m_PreviewExpanded": true,
    "m_PreviewMode": 0,
    "m_CustomColors": {
        "m_SerializableColors": []
    },
    "m_SerializedDescriptor": "SurfaceDescription.Occlusion"
}

{
    "m_SGVersion": 0,
    "m_Type": "UnityEditor.ShaderGraph.DynamicValueMaterialSlot",
    "m_ObjectId": "e5eeb42d98084bc0a4b9e15038de84fc",
    "m_Id": 1,
    "m_DisplayName": "B",
    "m_SlotType": 0,
    "m_Hidden": false,
    "m_ShaderOutputName": "B",
    "m_StageCapability": 3,
    "m_Value": {
        "e00": 2.0,
        "e01": 2.0,
        "e02": 2.0,
        "e03": 2.0,
        "e10": 2.0,
        "e11": 2.0,
        "e12": 2.0,
        "e13": 2.0,
        "e20": 2.0,
        "e21": 2.0,
        "e22": 2.0,
        "e23": 2.0,
        "e30": 2.0,
        "e31": 2.0,
        "e32": 2.0,
        "e33": 2.0
    },
    "m_DefaultValue": {
        "e00": 1.0,
        "e01": 0.0,
        "e02": 0.0,
        "e03": 0.0,
        "e10": 0.0,
        "e11": 1.0,
        "e12": 0.0,
        "e13": 0.0,
        "e20": 0.0,
        "e21": 0.0,
        "e22": 1.0,
        "e23": 0.0,
        "e30": 0.0,
        "e31": 0.0,
        "e32": 0.0,
        "e33": 1.0
    }
}

{
    "m_SGVersion": 1,
    "m_Type": "UnityEditor.ShaderGraph.Internal.Vector2ShaderProperty",
    "m_ObjectId": "e6c24d81be174932bc18bc09bc83941a",
    "m_Guid": {
        "m_GuidSerialized": "bec7bf0c-53a0-46cb-9667-79acfd08158e"
    },
    "m_Name": "In Min Max",
    "m_DefaultRefNameVersion": 1,
    "m_RefNameGeneratedByDisplayName": "In Min Max",
    "m_DefaultReferenceName": "_In_Min_Max",
    "m_OverrideReferenceName": "",
    "m_GeneratePropertyBlock": true,
    "m_UseCustomSlotLabel": false,
    "m_CustomSlotLabel": "",
    "m_Precision": 0,
    "overrideHLSLDeclaration": false,
    "hlslDeclarationOverride": 0,
    "m_Hidden": false,
    "m_Value": {
        "x": -1.0,
        "y": 10.0,
        "z": 0.0,
        "w": 0.0
    }
}

{
    "m_SGVersion": 0,
    "m_Type": "UnityEditor.ShaderGraph.BlockNode",
    "m_ObjectId": "f43f0f77283c44d3bad4b0adf071fa4d",
    "m_Group": {
        "m_Id": ""
    },
    "m_Name": "SurfaceDescription.NormalTS",
    "m_DrawState": {
        "m_Expanded": true,
        "m_Position": {
            "serializedVersion": "2",
            "x": 0.0,
            "y": 0.0,
            "width": 0.0,
            "height": 0.0
        }
    },
    "m_Slots": [
        {
            "m_Id": "814d987b2d954ecca5e8f7e11c88b0d3"
        }
    ],
    "synonyms": [],
    "m_Precision": 0,
    "m_PreviewExpanded": true,
    "m_PreviewMode": 0,
    "m_CustomColors": {
        "m_SerializableColors": []
    },
    "m_SerializedDescriptor": "SurfaceDescription.NormalTS"
}

{
    "m_SGVersion": 1,
    "m_Type": "UnityEditor.ShaderGraph.Internal.Vector2ShaderProperty",
    "m_ObjectId": "f7b429cd7b204ad693343b4dc1d1f09c",
    "m_Guid": {
        "m_GuidSerialized": "15e1c687-7daa-416d-8c9a-8569b05d07b5"
    },
    "m_Name": "Out Min Max",
    "m_DefaultRefNameVersion": 1,
    "m_RefNameGeneratedByDisplayName": "Out Min Max",
    "m_DefaultReferenceName": "_Out_Min_Max",
    "m_OverrideReferenceName": "",
    "m_GeneratePropertyBlock": true,
    "m_UseCustomSlotLabel": false,
    "m_CustomSlotLabel": "",
    "m_Precision": 0,
    "overrideHLSLDeclaration": false,
    "hlslDeclarationOverride": 0,
    "m_Hidden": false,
    "m_Value": {
        "x": 1.0,
        "y": 50.0,
        "z": 0.0,
        "w": 0.0
    }
}

